<svg xmlns="http://www.w3.org/2000/svg" width="710.953" height="521.353" viewBox="0 0 710.953 521.353">
  <g id="big_image" transform="translate(-0.003)">
    <g id="undraw_specs_re_546x" transform="translate(-149)">
      <path id="Trazado_1" data-name="Trazado 1" d="M820.385,236.787H319.117a13.426,13.426,0,0,0-13.426,13.426V610.542a13.426,13.426,0,0,0,13.426,13.426H820.385a13.426,13.426,0,0,0,13.426-13.426V250.213a13.426,13.426,0,0,0-13.426-13.426Zm-487.154,21.06a6.48,6.48,0,1,1,6.48-6.48A6.48,6.48,0,0,1,333.231,257.847Zm38.88,0a6.48,6.48,0,1,1,6.48-6.48A6.48,6.48,0,0,1,372.111,257.847Zm38.88,0a6.48,6.48,0,1,1,6.48-6.48,6.48,6.48,0,0,1-6.48,6.48Zm38.88,0a6.48,6.48,0,1,1,6.48-6.48,6.48,6.48,0,0,1-6.48,6.48Zm38.88,0a6.48,6.48,0,1,1,6.48-6.48,6.48,6.48,0,0,1-6.48,6.48Zm38.88,0a6.48,6.48,0,1,1,6.48-6.48A6.48,6.48,0,0,1,527.631,257.847Zm38.88,0a6.48,6.48,0,1,1,6.48-6.48A6.48,6.48,0,0,1,566.511,257.847Zm38.88,0a6.48,6.48,0,1,1,6.48-6.48A6.48,6.48,0,0,1,605.391,257.847Zm38.88,0a6.48,6.48,0,1,1,6.48-6.48A6.48,6.48,0,0,1,644.271,257.847Zm38.88,0a6.48,6.48,0,1,1,6.48-6.48A6.48,6.48,0,0,1,683.151,257.847Zm38.88,0a6.48,6.48,0,1,1,6.48-6.48A6.48,6.48,0,0,1,722.031,257.847Zm38.88,0a6.48,6.48,0,1,1,6.48-6.48A6.48,6.48,0,0,1,760.911,257.847Zm38.88,0a6.48,6.48,0,1,1,6.48-6.48A6.48,6.48,0,0,1,799.791,257.847Z" transform="translate(-130.771 -201.147)" fill="#cacaca"/>
      <path id="Trazado_2" data-name="Trazado 2" d="M794.465,201.147H293.2a13.426,13.426,0,0,0-13.426,13.426V574.9A13.426,13.426,0,0,0,293.2,588.328H794.465A13.426,13.426,0,0,0,807.891,574.9V214.573a13.426,13.426,0,0,0-13.426-13.426Zm-487.154,21.06a6.48,6.48,0,1,1,6.48-6.48,6.48,6.48,0,0,1-6.48,6.48Zm38.88,0a6.48,6.48,0,1,1,6.48-6.48,6.48,6.48,0,0,1-6.48,6.48Zm38.88,0a6.48,6.48,0,1,1,6.48-6.48,6.48,6.48,0,0,1-6.48,6.48Zm38.88,0a6.48,6.48,0,1,1,6.48-6.48,6.48,6.48,0,0,1-6.48,6.48Zm38.88,0a6.48,6.48,0,1,1,6.48-6.48,6.48,6.48,0,0,1-6.48,6.48Zm38.88,0a6.48,6.48,0,1,1,6.48-6.48,6.48,6.48,0,0,1-6.48,6.48Zm38.88,0a6.48,6.48,0,1,1,6.48-6.48,6.48,6.48,0,0,1-6.48,6.48Zm38.88,0a6.48,6.48,0,1,1,6.48-6.48,6.48,6.48,0,0,1-6.48,6.48Zm38.88,0a6.48,6.48,0,1,1,6.48-6.48,6.48,6.48,0,0,1-6.48,6.48Zm38.88,0a6.48,6.48,0,1,1,6.48-6.48,6.48,6.48,0,0,1-6.48,6.48Zm38.88,0a6.48,6.48,0,1,1,6.48-6.48,6.48,6.48,0,0,1-6.48,6.48Zm38.88,0a6.48,6.48,0,1,1,6.48-6.48,6.48,6.48,0,0,1-6.48,6.48Zm38.88,0a6.48,6.48,0,1,1,6.48-6.48,6.48,6.48,0,0,1-6.48,6.48Z" transform="translate(-130.771 -201.147)" fill="#f0f0f0"/>
      <path id="Trazado_10" data-name="Trazado 10" d="M811.312,316.093c2.591-8.257,8.482-15.83,16.63-18.621s20.08,1.461,26.206,7.566C865.354,316.206,865.7,329.877,858,342c-1.531-.081-6.815-.141-8.365-.2l-2.192-7.307v7.235c-12.1-.374-24.69-.14-37.291.1C809.022,333.248,808.722,324.35,811.312,316.093Z" transform="translate(-70.147 -137.147)" fill="#2f2e41"/>
      <path id="Trazado_11" data-name="Trazado 11" d="M757.423,447.026a7.634,7.634,0,0,1,4.934-10.615l32.559-61.432,13.142,10.143-36.136,57.2a7.675,7.675,0,0,1-14.5,4.707Z" transform="translate(-71.771 -142.147)" fill="#ffb6b6"/>
      <path id="Trazado_12" data-name="Trazado 12" d="M669.434,441.4H658.4l-5.249-42.558h16.285Z" transform="translate(59 59)" fill="#ffb6b6"/>
      <path id="Trazado_13" data-name="Trazado 13" d="M737.434,441.4H726.4l-5.249-42.558h16.285Z" transform="translate(59 59)" fill="#ffb6b6"/>
      <circle id="Elipse_2" data-name="Elipse 2" cx="17.475" cy="17.475" r="17.475" transform="translate(741.35 169.903)" fill="#ffb7b7"/>
      <path id="Trazado_15" data-name="Trazado 15" d="M810.443,354.494l10-6,20-2,17.677,4-.177,32.5-11.214,28.52-47-6-1.786-10.06s-13-17.461,1-27.461Z" transform="translate(-71.771 -142.147)" fill="#6c63ff"/>
      <path id="Trazado_16" data-name="Trazado 16" d="M846.943,410.994V422.1s13,16.894,6,29.894L873,625H852L816.943,478.994,802,622H784l-3-159s1.943-41.006,12.943-48.006L799,406Z" transform="translate(-71.771 -142.147)" fill="#2f2e41"/>
      <path id="Trazado_17" data-name="Trazado 17" d="M816.965,301.77a21.949,21.949,0,0,1,33.371,19.156c-9.768.449-20.029.566-30.434.586l-2.459-6.018-1.45,6.023q-4.756,0-9.529-.013a22.411,22.411,0,0,1,10.5-19.734Z" transform="translate(-70.147 -137.147)" fill="#2f2e41"/>
      <path id="Trazado_18" data-name="Trazado 18" d="M702.424,394.621l-7.811-3.068a4.2,4.2,0,1,1,3.068-7.811l7.811,3.068a4.2,4.2,0,1,1-3.068,7.811Z" transform="translate(-71.771 -142.147)" fill="#6c63ff"/>
      <path id="Trazado_19" data-name="Trazado 19" d="M876.359,446.408,722,385.781a6.579,6.579,0,0,0-6.029.637l-6.177-2.426a5.771,5.771,0,0,0-7.481,3.262l-1.917,4.879a5.771,5.771,0,0,0,3.262,7.481l5.138,2.018a6.581,6.581,0,0,0,4,7.582l154.358,60.627a6.6,6.6,0,0,0,8.552-3.728l4.381-11.153a6.6,6.6,0,0,0-3.728-8.552Z" transform="translate(-71.771 -142.147)" fill="#3f3d56"/>
      <path id="Trazado_20" data-name="Trazado 20" d="M912.868,492.3l-58.031-22.793,12.272-31.245,58.031,22.8a10.4,10.4,0,0,1,5.87,13.464l-4.678,11.91a10.4,10.4,0,0,1-13.464,5.866Z" transform="translate(-71.771 -142.147)" fill="#2f2e41"/>
      <path id="Trazado_21" data-name="Trazado 21" d="M922.024,485.382l-28.272-11.1a5.8,5.8,0,0,1-3.273-7.511l.877-2.233a5.8,5.8,0,0,1,7.51-3.275l28.272,11.1a5.8,5.8,0,0,1,3.274,7.511l-.877,2.232a5.8,5.8,0,0,1-7.51,3.275Z" transform="translate(-71.771 -142.147)" fill="#6c63ff"/>
      <path id="Trazado_22" data-name="Trazado 22" d="M830.32,433.957a7.862,7.862,0,0,1,1.183.366l30.507-21-.7-8.97,13.4-2.823,2.779,15.76a5.974,5.974,0,0,1-3.241,6.4l-37.79,18.637a7.839,7.839,0,1,1-6.14-8.366Z" transform="translate(-71.771 -142.147)" fill="#ffb6b6"/>
      <path id="Trazado_25" data-name="Trazado 25" d="M859,414l17,10c4-2,3.227-14.97.784-15.73l-1.842-43.276c-1-20-16.823-14.5-16.823-14.5l-7.177,1.5,5,21,5.431,36.234A5.984,5.984,0,0,0,859,414Z" transform="translate(-71.771 -142.147)" fill="#6c63ff"/>
      <path id="Trazado_26" data-name="Trazado 26" d="M810.831,354.22s-13.728.216-18.018,7.605c-3.435,5.915-9.855,29.51-12.28,38.691a6,6,0,0,0-5.933,4.341L793,412c4-2,2.89-4.772,1.876-6.206l6.853-10.279,8-4,3.318-35.4Z" transform="translate(-71.771 -142.147)" fill="#6c63ff"/>
      <path id="Trazado_27" data-name="Trazado 27" d="M805.141,663.5h-7.829l-1.4-7.392-3.579,7.392H771.57a4.668,4.668,0,0,1-2.652-8.509L785.5,643.539v-7.473l17.441,1.041Z" transform="translate(-71.771 -142.147)" fill="#2f2e41"/>
      <path id="Trazado_28" data-name="Trazado 28" d="M874.141,663.5h-7.829l-1.4-7.392-3.579,7.392H840.57a4.668,4.668,0,0,1-2.652-8.509L854.5,643.539v-7.473l17.441,1.041Z" transform="translate(-71.771 -142.147)" fill="#2f2e41"/>
    </g>
    <g id="big_image-2" data-name="big_image" transform="translate(24.001 36.855)">
      <text id="Wire" transform="translate(0 128)" fill="#707070" font-size="150" font-family="FreestyleScript-Regular, Freestyle Script"><tspan x="0" y="0">Sketch</tspan></text>
      <text id="Web" transform="translate(275 304)" fill="#707070" font-size="150" font-family="FreestyleScript-Regular, Freestyle Script"><tspan x="0" y="0">Web</tspan></text>
      <text id="_2" data-name="2" transform="translate(237.801 207.67) rotate(0.974)" fill="#707070" stroke="#707070" stroke-width="10" font-size="140" font-family="FreestyleScript-Regular, Freestyle Script"><tspan x="0" y="0">2</tspan></text>
    </g>
  </g>
</svg>
