<svg xmlns="http://www.w3.org/2000/svg" xmlns:xlink="http://www.w3.org/1999/xlink" width="83" height="48" viewBox="0 0 83 48">
  <defs>
    <filter id="Rectángulo_11" x="0" y="0" width="83" height="48" filterUnits="userSpaceOnUse">
      <feOffset dy="3" input="SourceAlpha"/>
      <feGaussianBlur stdDeviation="3" result="blur"/>
      <feFlood flood-color="#0c0a0a" flood-opacity="0.161"/>
      <feComposite operator="in" in2="blur"/>
      <feComposite in="SourceGraphic"/>
    </filter>
  </defs>
  <g id="btn_mock" transform="translate(9 6)">
    <g transform="matrix(1, 0, 0, 1, -9, -6)" filter="url(#Rectángulo_11)">
      <g id="Rectángulo_11-2" data-name="Rectángulo 11" transform="translate(9 6)" fill="#fff" stroke="#464444" stroke-width="1">
        <rect width="65" height="30" rx="5" stroke="none"/>
        <rect x="0.5" y="0.5" width="64" height="29" rx="4.5" fill="none"/>
      </g>
    </g>
    <text id="Button" transform="translate(14 19)" fill="#464444" font-size="10" font-family="Verdana-Bold, Verdana" font-weight="700"><tspan x="0" y="0">Button</tspan></text>
  </g>
</svg>
