<svg xmlns="http://www.w3.org/2000/svg" xmlns:xlink="http://www.w3.org/1999/xlink" width="48" height="48" viewBox="0 0 48 48">
  <defs>
    <filter id="Rectángulo_13" x="0" y="0" width="48" height="48" filterUnits="userSpaceOnUse">
      <feOffset dy="3" input="SourceAlpha"/>
      <feGaussianBlur stdDeviation="3" result="blur"/>
      <feFlood flood-color="#0c0a0a" flood-opacity="0.157"/>
      <feComposite operator="in" in2="blur"/>
      <feComposite in="SourceGraphic"/>
    </filter>
  </defs>
  <g id="check_off_mock" transform="translate(9 6)">
    <g transform="matrix(1, 0, 0, 1, -9, -6)" filter="url(#Rectángulo_13)">
      <g id="Rectángulo_13-2" data-name="Rectángulo 13" transform="translate(9 6)" fill="#fff" stroke="#464444" stroke-width="1">
        <rect width="30" height="30" rx="4" stroke="none"/>
        <rect x="0.5" y="0.5" width="29" height="29" rx="3.5" fill="none"/>
      </g>
    </g>
  </g>
</svg>
