<svg xmlns="http://www.w3.org/2000/svg" xmlns:xlink="http://www.w3.org/1999/xlink" width="48" height="48" viewBox="0 0 48 48">
  <defs>
    <filter id="Rectángulo_14" x="0" y="0" width="48" height="48" filterUnits="userSpaceOnUse">
      <feOffset dy="3" input="SourceAlpha"/>
      <feGaussianBlur stdDeviation="3" result="blur"/>
      <feFlood flood-color="#0c0a0a" flood-opacity="0.157"/>
      <feComposite operator="in" in2="blur"/>
      <feComposite in="SourceGraphic"/>
    </filter>
  </defs>
  <g id="check_on_mock" transform="translate(9 6)">
    <g transform="matrix(1, 0, 0, 1, -9, -6)" filter="url(#Rectángulo_14)">
      <g id="Rectángulo_14-2" data-name="Rectángulo 14" transform="translate(9 6)" fill="#fff" stroke="#464444" stroke-width="1">
        <rect width="30" height="30" rx="4" stroke="none"/>
        <rect x="0.5" y="0.5" width="29" height="29" rx="3.5" fill="none"/>
      </g>
    </g>
    <g id="Componente_1_6" data-name="Componente 1 – 6" transform="translate(3.886 4.394)">
      <g id="Rectángulo_15" data-name="Rectángulo 15" transform="translate(19.91) rotate(41)" fill="#464444" stroke="#464444" stroke-width="1">
        <rect width="5.024" height="23.557" stroke="none"/>
        <rect x="0.5" y="0.5" width="4.024" height="22.557" fill="none"/>
      </g>
      <g id="Rectángulo_16" data-name="Rectángulo 16" transform="translate(0 14.727) rotate(-51)" fill="#464444" stroke="#464444" stroke-width="1">
        <rect width="4.899" height="10.305" stroke="none"/>
        <rect x="0.5" y="0.5" width="3.899" height="9.305" fill="none"/>
      </g>
    </g>
  </g>
</svg>
