<svg xmlns="http://www.w3.org/2000/svg" width="359.43" height="443" viewBox="0 0 359.43 443">
  <g id="delete" transform="translate(-41.785)">
    <path id="Trazado_1" data-name="Trazado 1" d="M321.785,38H238.4V0H125.169V38H41.785V98h280ZM155.169,30H208.4v8H155.169Z" fill="#464444"/>
    <path id="Trazado_2" data-name="Trazado 2" d="M295.142,214.31,300.8,128H62.769L81.785,418H195.957a128.709,128.709,0,0,1-23.6-74.43C172.355,274.43,226.849,217.779,295.142,214.31Z" fill="#464444"/>
    <path id="Trazado_3" data-name="Trazado 3" d="M301.785,244.141a99.429,99.429,0,1,0,99.43,99.429A99.542,99.542,0,0,0,301.785,244.141Zm54.176,132.392-21.213,21.213-32.963-32.963-32.963,32.963-21.213-21.213,32.963-32.963-32.963-32.963,21.213-21.213,32.963,32.963,32.963-32.963,21.213,21.213L323,343.57Z" fill="#464444"/>
  </g>
</svg>
