<svg id="edit" xmlns="http://www.w3.org/2000/svg" width="512" height="512" viewBox="0 0 512 512">
  <g id="Grupo_1" data-name="Grupo 1">
    <path id="Trazado_4" data-name="Trazado 4" d="M387.182,0,0,387.181V512H124.818L512,124.819Zm-282.3,463.858H48.142V407.123l282.3-282.3,56.735,56.735ZM364.486,90.78,387.18,68.086l56.737,56.734-22.7,22.7Z" fill="#464444"/>
  </g>
</svg>
