<svg xmlns="http://www.w3.org/2000/svg" xmlns:xlink="http://www.w3.org/1999/xlink" width="79" height="42" viewBox="0 0 79 42">
  <defs>
    <filter id="Label" x="0" y="0" width="79" height="42" filterUnits="userSpaceOnUse">
      <feOffset dy="3" input="SourceAlpha"/>
      <feGaussianBlur stdDeviation="3" result="blur"/>
      <feFlood flood-color="#0c0a0a" flood-opacity="0.157"/>
      <feComposite operator="in" in2="blur"/>
      <feComposite in="SourceGraphic"/>
    </filter>
  </defs>
  <g transform="matrix(1, 0, 0, 1, 0, 0)" filter="url(#Label)">
    <text id="Label-2" data-name="Label" transform="translate(9 26)" fill="#464444" font-size="20" font-family="Verdana-Bold, Verdana" font-weight="700"><tspan x="0" y="0">Label</tspan></text>
  </g>
</svg>
