<svg id="question" xmlns="http://www.w3.org/2000/svg" width="496.158" height="496.152" viewBox="0 0 496.158 496.152">
  <path id="Trazado_120" data-name="Trazado 120" d="M496.158,248.085C496.158,111.063,385.089,0,248.083,0S0,111.063,0,248.085c0,137,111.07,248.07,248.083,248.07S496.158,385.086,496.158,248.085Z" transform="translate(0 -0.003)" fill="#fb5607"/>
  <path id="Trazado_121" data-name="Trazado 121" d="M138.216,173.592q0-20.872,13.4-42.3T190.73,95.809q25.709-14.06,59.985-14.062,31.857,0,56.25,11.755t37.683,31.97a78.427,78.427,0,0,1,13.293,43.945q0,18.678-7.581,32.739a100.211,100.211,0,0,1-18.018,24.279q-10.439,10.218-37.463,34.388A152.313,152.313,0,0,0,282.9,272.8a48.579,48.579,0,0,0-6.7,9.447,46.109,46.109,0,0,0-3.406,8.57q-1.211,4.283-3.625,15.051-4.176,22.854-26.147,22.852a26.719,26.719,0,0,1-19.226-7.471q-7.8-7.469-7.8-22.192,0-18.457,5.713-31.97a81.078,81.078,0,0,1,15.161-23.73,347.256,347.256,0,0,1,25.488-24.28q14.059-12.3,20.325-18.567a62.971,62.971,0,0,0,10.547-13.953,33.742,33.742,0,0,0,4.285-16.7,38.837,38.837,0,0,0-13.074-29.663q-13.076-12.081-33.728-12.085-24.174,0-35.6,12.195t-19.336,35.925q-7.472,24.833-28.345,24.829a27.853,27.853,0,0,1-20.764-8.679Q138.216,183.7,138.216,173.592Zm107.226,240.82a34.579,34.579,0,0,1-23.4-8.68q-10-8.676-10-24.279a31.274,31.274,0,0,1,9.668-23.291,32.654,32.654,0,0,1,23.73-9.448,32.269,32.269,0,0,1,32.739,32.739q0,15.383-9.888,24.17A33.368,33.368,0,0,1,245.442,414.412Z" transform="translate(0 -0.003)" fill="#fff"/>
</svg>
