<svg xmlns="http://www.w3.org/2000/svg" xmlns:xlink="http://www.w3.org/1999/xlink" width="70" height="60" viewBox="0 0 70 60">
  <defs>
    <filter id="Rectángulo_18" x="0" y="0" width="70" height="60" filterUnits="userSpaceOnUse">
      <feOffset dy="3" input="SourceAlpha"/>
      <feGaussianBlur stdDeviation="3" result="blur"/>
      <feFlood flood-color="#0c0a0a" flood-opacity="0.157"/>
      <feComposite operator="in" in2="blur"/>
      <feComposite in="SourceGraphic"/>
    </filter>
  </defs>
  <g id="square_mock" transform="translate(9 6)">
    <g transform="matrix(1, 0, 0, 1, -9, -6)" filter="url(#Rectángulo_18)">
      <g id="Rectángulo_18-2" data-name="Rectángulo 18" transform="translate(9 6)" fill="#fff" stroke="#464444" stroke-width="1">
        <rect width="52" height="42" rx="11" stroke="none"/>
        <rect x="0.5" y="0.5" width="51" height="41" rx="10.5" fill="none"/>
      </g>
    </g>
    <line id="Línea_9" data-name="Línea 9" x2="41" y2="37" transform="translate(5.5 2.5)" fill="none" stroke="#464444" stroke-width="1"/>
    <line id="Línea_10" data-name="Línea 10" x1="41" y2="37" transform="translate(5.5 2.5)" fill="none" stroke="#464444" stroke-width="1"/>
  </g>
</svg>
