<svg xmlns="http://www.w3.org/2000/svg" width="52" height="52" viewBox="0 0 52 52">
  <path id="warning" d="M26,0A26,26,0,1,0,52,26,26.029,26.029,0,0,0,26,0Zm2,41a2,2,0,0,1-4,0V39a2,2,0,0,1,4,0Zm0-8a2,2,0,0,1-4,0V11a2,2,0,0,1,4,0Z" fill="#fff"/>
</svg>
